2.796191734313964972e+01
1.153046057891845635e+02
1.882339725494384908e+01
1.634328889846801758e+01
1.530072261810302692e+01
1.485346473693847713e+01
1.403689123153686502e+01
1.237320524215698292e+01
1.165044166564941364e+01
1.119804687499999929e+01
1.121098491668701236e+01
1.103646596908569322e+01
1.029790184020996158e+01
9.837507629394531605e+00
9.890340156555176065e+00
9.694201335906981853e+00
9.439300899505616016e+00
9.116184883117675497e+00
9.804094696044922230e+00
9.874617958068848012e+00
9.139795131683349894e+00
8.941659069061278942e+00
8.697517929077148935e+00
8.690228328704833416e+00
8.595275554656982564e+00
9.156426057815551189e+00
9.070690670013426882e+00
8.586658067703247355e+00
8.588593540191650888e+00
8.658689432144164755e+00
8.408912420272827148e+00
8.798508701324463388e+00
8.392406435012818022e+00
8.819704446792602681e+00
8.783408899307250550e+00
8.370616521835327006e+00
8.202010860443115448e+00
8.734295520782470845e+00
8.610498065948485547e+00
8.589043855667114258e+00
8.215672607421874218e+00
8.195927400588988831e+00
8.323368434906006641e+00
8.169053153991699290e+00
8.073124923706053835e+00
8.156145830154418519e+00
7.969063405990600479e+00
8.061890144348144105e+00
8.177660598754883381e+00
8.088536911010741903e+00
