2.717677561569213935e+02
2.864053836822509780e+01
1.870599462509155231e+01
1.743884884834289650e+01
1.620598049163818288e+01
1.557019646644592292e+01
1.499918633460998585e+01
1.434646155357360797e+01
1.389415065765380852e+01
1.331520922660827644e+01
1.274319693565368716e+01
1.236192045211791957e+01
1.195991196632385289e+01
1.164305784225463825e+01
1.125765058517456119e+01
1.093782249450683608e+01
1.064077705383300732e+01
1.044610223770141566e+01
1.017675889968872127e+01
9.894585151672362855e+00
9.845184936523438068e+00
9.533049507141113210e+00
9.425535974502563974e+00
9.340314712524413920e+00
9.122986359596252370e+00
8.998983497619628125e+00
8.911872048377990296e+00
8.717614240646362589e+00
8.693884210586547923e+00
8.518115000724792552e+00
8.430391049385070446e+00
8.374272241592407795e+00
8.252189235687255930e+00
8.231680569648743173e+00
8.175525059700012420e+00
7.925235342979431330e+00
7.818584566116332901e+00
7.750340585708618057e+00
7.747091212272644078e+00
7.667828292846679439e+00
7.581658549308777140e+00
7.575103626251221023e+00
7.515942144393920721e+00
7.456412339210510609e+00
7.356623005867004572e+00
7.393584666252135840e+00
7.388307304382323970e+00
7.348553290367126678e+00
7.333704061508178995e+00
7.240146756172180176e+00
